Phase_2.2_test/sim/tb.vcd
$date
	Fri Jul 25 22:20:53 2025
$end
$version
	Icarus Verilog
$end
$timescale
	1s
$end
$scope module tb $end
$var wire 1 ! x3 $end
$var wire 1 " x27 $end
$var wire 1 # x26 $end
$var reg 1 $ clk $end
$var reg 1 % rst $end
$var integer 32 & r [31:0] $end
$scope module open_risc_v_soc_inst $end
$var wire 1 $ clk $end
$var wire 1 % rst $end
$var wire 32 ' rom_inst_o [31:0] $end
$var wire 32 ( open_risc_v_inst_addr_o [31:0] $end
$scope module open_risc_v_inst $end
$var wire 1 $ clk $end
$var wire 1 % rst $end
$var wire 32 ) regs_reg2_rdata_o [31:0] $end
$var wire 32 * regs_reg1_rdata_o [31:0] $end
$var wire 32 + pc_reg_pc_o [31:0] $end
$var wire 32 , inst_i [31:0] $end
$var wire 32 - inst_addr_o [31:0] $end
$var wire 32 . if_inst_o [31:0] $end
$var wire 32 / if_inst_addr_o [31:0] $end
$var wire 32 0 if_id_inst_o [31:0] $end
$var wire 32 1 if_id_inst_addr_o [31:0] $end
$var wire 5 2 id_rs2_addr_o [4:0] $end
$var wire 5 3 id_rs1_addr_o [4:0] $end
$var wire 1 4 id_reg_wen $end
$var wire 5 5 id_rd_addr_o [4:0] $end
$var wire 32 6 id_op2_o [31:0] $end
$var wire 32 7 id_op1_o [31:0] $end
$var wire 32 8 id_offset_addr_o [31:0] $end
$var wire 32 9 id_inst_o [31:0] $end
$var wire 32 : id_inst_addr_o [31:0] $end
$var wire 1 ; id_ex_reg_wen $end
$var wire 5 < id_ex_rd_addr_o [4:0] $end
$var wire 32 = id_ex_op2_o [31:0] $end
$var wire 32 > id_ex_op1_o [31:0] $end
$var wire 32 ? id_ex_offset_addr_o [31:0] $end
$var wire 32 @ id_ex_inst_o [31:0] $end
$var wire 32 A id_ex_inst_addr_o [31:0] $end
$var wire 32 B id_ex_base_addr_o [31:0] $end
$var wire 32 C id_base_addr_o [31:0] $end
$var wire 1 D ex_reg_wen_o $end
$var wire 32 E ex_rd_data_o [31:0] $end
$var wire 5 F ex_rd_addr_o [4:0] $end
$var wire 1 G ex_jump_en_o $end
$var wire 32 H ex_jump_addr_o [31:0] $end
$var wire 1 I ex_hold_flag_o $end
$var wire 1 J ctrl_jump_en_o $end
$var wire 32 K ctrl_jump_addr_o [31:0] $end
$var wire 1 L ctrl_hold_flag_o $end
$scope module ctrl_inst $end
$var wire 1 G jump_en_i $end
$var wire 32 M jump_addr_i [31:0] $end
$var wire 1 I hold_flag_ex_i $end
$var reg 1 L hold_flag_o $end
$var reg 32 N jump_addr_o [31:0] $end
$var reg 1 J jump_en_o $end
$upscope $end
$scope module ex_inst $end
$var wire 32 O op1_i_and_op2_i [31:0] $end
$var wire 32 P op1_i_or_op2_i [31:0] $end
$var wire 32 Q op1_i_xor_op2_i [31:0] $end
$var wire 5 R shamt [4:0] $end
$var wire 5 S rs2 [4:0] $end
$var wire 5 T rs1 [4:0] $end
$var wire 1 ; rd_wen_i $end
$var wire 5 U rd_addr_i [4:0] $end
$var wire 5 V rd [4:0] $end
$var wire 7 W opcode [6:0] $end
$var wire 32 X op2_i [31:0] $end
$var wire 32 Y op1_i_shift_right_op2_i [31:0] $end
$var wire 32 Z op1_i_shift_left_op2_i [31:0] $end
$var wire 1 [ op1_i_less_op2_i_unsigned $end
$var wire 1 \ op1_i_less_op2_i_signed $end
$var wire 1 ] op1_i_equal_op2_i $end
$var wire 32 ^ op1_i_add_op2_i [31:0] $end
$var wire 32 _ op1_i [31:0] $end
$var wire 32 ` offset_addr_i [31:0] $end
$var wire 32 a inst_i [31:0] $end
$var wire 32 b inst_addr_i [31:0] $end
$var wire 12 c imm [11:0] $end
$var wire 7 d func7 [6:0] $end
$var wire 3 e func3 [2:0] $end
$var wire 32 f base_addr_i [31:0] $end
$var wire 32 g base_addr_add_offset_addr [31:0] $end
$var wire 32 h SRA_mask [31:0] $end
$var reg 1 I hold_flag_o $end
$var reg 32 i jump_addr_o [31:0] $end
$var reg 1 G jump_en_o $end
$var reg 5 j rd_addr_o [4:0] $end
$var reg 32 k rd_data_o [31:0] $end
$var reg 1 D rd_wen_o $end
$upscope $end
$scope module id_ex_inst $end
$var wire 1 $ clk $end
$var wire 1 L hold_flag_i $end
$var wire 1 % rst $end
$var wire 1 ; reg_wen_o $end
$var wire 1 4 reg_wen_i $end
$var wire 5 l rd_addr_o [4:0] $end
$var wire 5 m rd_addr_i [4:0] $end
$var wire 32 n op2_o [31:0] $end
$var wire 32 o op2_i [31:0] $end
$var wire 32 p op1_o [31:0] $end
$var wire 32 q op1_i [31:0] $end
$var wire 32 r offset_addr_o [31:0] $end
$var wire 32 s offset_addr_i [31:0] $end
$var wire 32 t inst_o [31:0] $end
$var wire 32 u inst_i [31:0] $end
$var wire 32 v inst_addr_o [31:0] $end
$var wire 32 w inst_addr_i [31:0] $end
$var wire 32 x base_addr_o [31:0] $end
$var wire 32 y base_addr_i [31:0] $end
$scope module dff1 $end
$var wire 1 $ clk $end
$var wire 1 L hold_flag_i $end
$var wire 1 % rst $end
$var wire 32 z set_data [31:0] $end
$var wire 32 { data_i [31:0] $end
$var reg 32 | data_o [31:0] $end
$upscope $end
$scope module dff2 $end
$var wire 1 $ clk $end
$var wire 1 L hold_flag_i $end
$var wire 1 % rst $end
$var wire 32 } set_data [31:0] $end
$var wire 32 ~ data_i [31:0] $end
$var reg 32 !" data_o [31:0] $end
$upscope $end
$scope module dff3 $end
$var wire 1 $ clk $end
$var wire 1 L hold_flag_i $end
$var wire 1 % rst $end
$var wire 32 "" set_data [31:0] $end
$var wire 32 #" data_i [31:0] $end
$var reg 32 $" data_o [31:0] $end
$upscope $end
$scope module dff4 $end
$var wire 1 $ clk $end
$var wire 1 L hold_flag_i $end
$var wire 1 % rst $end
$var wire 32 %" set_data [31:0] $end
$var wire 32 &" data_i [31:0] $end
$var reg 32 '" data_o [31:0] $end
$upscope $end
$scope module dff5 $end
$var wire 1 $ clk $end
$var wire 1 L hold_flag_i $end
$var wire 1 % rst $end
$var wire 5 (" set_data [4:0] $end
$var wire 5 )" data_i [4:0] $end
$var reg 5 *" data_o [4:0] $end
$upscope $end
$scope module dff6 $end
$var wire 1 $ clk $end
$var wire 1 L hold_flag_i $end
$var wire 1 % rst $end
$var wire 1 +" set_data $end
$var wire 1 4 data_i $end
$var reg 1 ; data_o $end
$upscope $end
$scope module dff7 $end
$var wire 1 $ clk $end
$var wire 1 L hold_flag_i $end
$var wire 1 % rst $end
$var wire 32 ," set_data [31:0] $end
$var wire 32 -" data_i [31:0] $end
$var reg 32 ." data_o [31:0] $end
$upscope $end
$scope module dff8 $end
$var wire 1 $ clk $end
$var wire 1 L hold_flag_i $end
$var wire 1 % rst $end
$var wire 32 /" set_data [31:0] $end
$var wire 32 0" data_i [31:0] $end
$var reg 32 1" data_o [31:0] $end
$upscope $end
$upscope $end
$scope module id_inst $end
$var wire 5 2" shamt [4:0] $end
$var wire 32 3" rs2_data_i [31:0] $end
$var wire 5 4" rs2 [4:0] $end
$var wire 32 5" rs1_data_i [31:0] $end
$var wire 5 6" rs1 [4:0] $end
$var wire 5 7" rd [4:0] $end
$var wire 7 8" opcode [6:0] $end
$var wire 32 9" inst_i [31:0] $end
$var wire 32 :" inst_addr_i [31:0] $end
$var wire 12 ;" imm [11:0] $end
$var wire 7 <" func7 [6:0] $end
$var wire 3 =" func3 [2:0] $end
$var reg 32 >" base_addr_o [31:0] $end
$var reg 32 ?" inst_addr_o [31:0] $end
$var reg 32 @" inst_o [31:0] $end
$var reg 32 A" offset_addr_o [31:0] $end
$var reg 32 B" op1_o [31:0] $end
$var reg 32 C" op2_o [31:0] $end
$var reg 5 D" rd_addr_o [4:0] $end
$var reg 1 4 reg_wen $end
$var reg 5 E" rs1_addr_o [4:0] $end
$var reg 5 F" rs2_addr_o [4:0] $end
$upscope $end
$scope module if_id_inst $end
$var wire 1 $ clk $end
$var wire 1 L hold_flag_i $end
$var wire 1 % rst $end
$var wire 32 G" inst_o [31:0] $end
$var wire 32 H" inst_i [31:0] $end
$var wire 32 I" inst_addr_o [31:0] $end
$var wire 32 J" inst_addr_i [31:0] $end
$scope module dff1 $end
$var wire 1 $ clk $end
$var wire 1 L hold_flag_i $end
$var wire 1 % rst $end
$var wire 32 K" set_data [31:0] $end
$var wire 32 L" data_i [31:0] $end
$var reg 32 M" data_o [31:0] $end
$upscope $end
$scope module dff2 $end
$var wire 1 $ clk $end
$var wire 1 L hold_flag_i $end
$var wire 1 % rst $end
$var wire 32 N" set_data [31:0] $end
$var wire 32 O" data_i [31:0] $end
$var reg 32 P" data_o [31:0] $end
$upscope $end
$upscope $end
$scope module ifetch_inst $end
$var wire 32 Q" if2rom_addr_o [31:0] $end
$var wire 32 R" inst_addr_o [31:0] $end
$var wire 32 S" inst_o [31:0] $end
$var wire 32 T" rom_inst_i [31:0] $end
$var wire 32 U" pc_addr_i [31:0] $end
$upscope $end
$scope module pc_reg_inst $end
$var wire 1 $ clk $end
$var wire 32 V" jump_addr_i [31:0] $end
$var wire 1 J jump_en $end
$var wire 1 % rst $end
$var reg 32 W" pc_o [31:0] $end
$upscope $end
$scope module regs_inst $end
$var wire 1 $ clk $end
$var wire 5 X" reg1_raddr_i [4:0] $end
$var wire 5 Y" reg2_raddr_i [4:0] $end
$var wire 5 Z" reg_waddr_i [4:0] $end
$var wire 32 [" reg_wdata_i [31:0] $end
$var wire 1 D reg_wen $end
$var wire 1 % rst $end
$var reg 32 \" reg1_rdata_o [31:0] $end
$var reg 32 ]" reg2_rdata_o [31:0] $end
$var integer 32 ^" i [31:0] $end
$upscope $end
$upscope $end
$scope module rom_inst $end
$var wire 32 _" inst_addr_i [31:0] $end
$var reg 32 `" inst_o [31:0] $end
$upscope $end
$upscope $end
$upscope $end
$enddefinitions $end
#0
$dumpvars
b110100010011 `"
b0 _"
b11111 ^"
b0 ]"
b0 \"
b0 ["
b0 Z"
b0 Y"
b0 X"
b0 W"
b0 V"
b0 U"
b110100010011 T"
b110100010011 S"
b0 R"
b0 Q"
b0 P"
b0 O"
b0 N"
b10011 M"
b110100010011 L"
b10011 K"
b0 J"
b0 I"
b110100010011 H"
b10011 G"
b0 F"
b0 E"
b0 D"
b0 C"
b0 B"
b0 A"
b10011 @"
b0 ?"
b0 >"
b0 ="
b0 <"
b0 ;"
b0 :"
b10011 9"
b10011 8"
b0 7"
b0 6"
b0 5"
b0 4"
b0 3"
b0 2"
b0 1"
b0 0"
b0 /"
b0 ."
b0 -"
b0 ,"
0+"
b0 *"
b0 )"
b0 ("
b0 '"
b0 &"
b0 %"
b0 $"
b0 #"
b0 ""
b0 !"
b0 ~
b0 }
b10011 |
b10011 {
b10011 z
b0 y
b0 x
b0 w
b0 v
b10011 u
b10011 t
b0 s
b0 r
b0 q
b0 p
b0 o
b0 n
b0 m
b0 l
b0 k
b0 j
b0 i
b11111111111111111111111111111111 h
b0 g
b0 f
b0 e
b0 d
b0 c
b0 b
b10011 a
b0 `
b0 _
b0 ^
1]
0\
0[
b0 Z
b0 Y
b0 X
b10011 W
b0 V
b0 U
b0 T
b0 S
b0 R
b0 Q
b0 P
b0 O
b0 N
b0 M
0L
b0 K
0J
0I
b0 H
0G
b0 F
b0 E
1D
b0 C
b0 B
b0 A
b10011 @
b0 ?
b0 >
b0 =
b0 <
0;
b0 :
b10011 9
b0 8
b0 7
b0 6
b0 5
14
b0 3
b0 2
b0 1
b10011 0
b0 /
b110100010011 .
b0 -
b110100010011 ,
b0 +
b0 *
b0 )
b0 (
b110100010011 '
bx &
0%
1$
0#
0"
0!
$end
#100
0$
#200
b11111 ^"
1$
#300
1%
0$
#400
b11010 5
b11010 m
b11010 )"
b11010 D"
b110110010011 .
b110110010011 H"
b110110010011 L"
b110110010011 S"
b110110010011 '
b110110010011 ,
b110110010011 T"
b110110010011 `"
b11010 7"
b110100010011 9
b110100010011 u
b110100010011 {
b110100010011 @"
b100 /
b100 J"
b100 O"
b100 R"
b100 (
b100 -
b100 Q"
b100 _"
b100 +
b100 U"
b100 W"
b110100010011 0
b110100010011 9"
b110100010011 G"
b110100010011 M"
1;
1$
#500
0$
#600
b11011 5
b11011 m
b11011 )"
b11011 D"
b11010 F
b11010 j
b11010 Z"
b11010 V
b11011 7"
b100 :
b100 w
b100 ~
b100 ?"
b110110010011 9
b110110010011 u
b110110010011 {
b110110010011 @"
b10010011 .
b10010011 H"
b10010011 L"
b10010011 S"
b10010011 '
b10010011 ,
b10010011 T"
b10010011 `"
b11010 <
b11010 U
b11010 l
b11010 *"
b110100010011 @
b110100010011 a
b110100010011 t
b110100010011 |
b100 1
b100 :"
b100 I"
b100 P"
b110110010011 0
b110110010011 9"
b110110010011 G"
b110110010011 M"
b1000 /
b1000 J"
b1000 O"
b1000 R"
b1000 (
b1000 -
b1000 Q"
b1000 _"
b1000 +
b1000 U"
b1000 W"
1$
#700
0$
#800
b1 5
b1 m
b1 )"
b1 D"
b1000111100010011 .
b1000111100010011 H"
b1000111100010011 L"
b1000111100010011 S"
b1000111100010011 '
b1000111100010011 ,
b1000111100010011 T"
b1000111100010011 `"
b1 7"
b1000 :
b1000 w
b1000 ~
b1000 ?"
b10010011 9
b10010011 u
b10010011 {
b10010011 @"
b11011 V
b11011 F
b11011 j
b11011 Z"
b1100 /
b1100 J"
b1100 O"
b1100 R"
b1100 (
b1100 -
b1100 Q"
b1100 _"
b1100 +
b1100 U"
b1100 W"
b10010011 0
b10010011 9"
b10010011 G"
b10010011 M"
b1000 1
b1000 :"
b1000 I"
b1000 P"
b110110010011 @
b110110010011 a
b110110010011 t
b110110010011 |
b100 A
b100 b
b100 v
b100 !"
b11011 <
b11011 U
b11011 l
b11011 *"
1$
#900
0$
#1000
b11110 5
b11110 m
b11110 )"
b11110 D"
b1 3
b1 E"
b1 X"
b1 F
b1 j
b1 Z"
b1 V
b1 6"
b11110 7"
b1100 :
b1100 w
b1100 ~
b1100 ?"
b1000111100010011 9
b1000111100010011 u
b1000111100010011 {
b1000111100010011 @"
b111010010011 .
b111010010011 H"
b111010010011 L"
b111010010011 S"
b111010010011 '
b111010010011 ,
b111010010011 T"
b111010010011 `"
b1 <
b1 U
b1 l
b1 *"
b1000 A
b1000 b
b1000 v
b1000 !"
b10010011 @
b10010011 a
b10010011 t
b10010011 |
b1100 1
b1100 :"
b1100 I"
b1100 P"
b1000111100010011 0
b1000111100010011 9"
b1000111100010011 G"
b1000111100010011 M"
b10000 /
b10000 J"
b10000 O"
b10000 R"
b10000 (
b10000 -
b10000 Q"
b10000 _"
b10000 +
b10000 U"
b10000 W"
1$
#1100
0$
#1200
b11101 5
b11101 m
b11101 )"
b11101 D"
b0 3
b0 E"
b0 X"
b1000000000000110010011 .
b1000000000000110010011 H"
b1000000000000110010011 L"
b1000000000000110010011 S"
b1000000000000110010011 '
b1000000000000110010011 ,
b1000000000000110010011 T"
b1000000000000110010011 `"
b0 6"
b11101 7"
b10000 :
b10000 w
b10000 ~
b10000 ?"
b111010010011 9
b111010010011 u
b111010010011 {
b111010010011 @"
b1 T
b11110 V
b11110 F
b11110 j
b11110 Z"
b10100 /
b10100 J"
b10100 O"
b10100 R"
b10100 (
b10100 -
b10100 Q"
b10100 _"
b10100 +
b10100 U"
b10100 W"
b111010010011 0
b111010010011 9"
b111010010011 G"
b111010010011 M"
b10000 1
b10000 :"
b10000 I"
b10000 P"
b1000111100010011 @
b1000111100010011 a
b1000111100010011 t
b1000111100010011 |
b1100 A
b1100 b
b1100 v
b1100 !"
b11110 <
b11110 U
b11110 l
b11110 *"
1$
#1300
0$
#1400
b11 5
b11 m
b11 )"
b11 D"
b10 6
b10 o
b10 &"
b10 C"
b11101 F
b11101 j
b11101 Z"
b0 T
b11101 V
b10 4"
b10 2"
b10 ;"
b11 7"
b10100 :
b10100 w
b10100 ~
b10100 ?"
b1000000000000110010011 9
b1000000000000110010011 u
b1000000000000110010011 {
b1000000000000110010011 @"
b100111110111110001110001100011 .
b100111110111110001110001100011 H"
b100111110111110001110001100011 L"
b100111110111110001110001100011 S"
b100111110111110001110001100011 '
b100111110111110001110001100011 ,
b100111110111110001110001100011 T"
b100111110111110001110001100011 `"
b11101 <
b11101 U
b11101 l
b11101 *"
b10000 A
b10000 b
b10000 v
b10000 !"
b111010010011 @
b111010010011 a
b111010010011 t
b111010010011 |
b10100 1
b10100 :"
b10100 I"
b10100 P"
b1000000000000110010011 0
b1000000000000110010011 9"
b1000000000000110010011 G"
b1000000000000110010011 M"
b11000 /
b11000 J"
b11000 O"
b11000 R"
b11000 (
b11000 -
b11000 Q"
b11000 _"
b11000 +
b11000 U"
b11000 W"
1$
#1500
0$
#1600
b1001111000 8
b1001111000 s
b1001111000 0"
b1001111000 A"
b11000 C
b11000 y
b11000 -"
b11000 >"
04
b0 5
b0 m
b0 )"
b0 D"
b0 6
b0 o
b0 &"
b0 C"
b11101 2
b11101 F"
b11101 Y"
b11110 3
b11110 E"
b11110 X"
b100000000000010010011 .
b100000000000010010011 H"
b100000000000010010011 L"
b100000000000010010011 S"
b100000000000010010011 '
b100000000000010010011 ,
b100000000000010010011 T"
b100000000000010010011 `"
b10011 <"
b11101 4"
b11101 2"
b1001111101 ;"
b11110 6"
b1 ="
b11000 7"
b1100011 8"
b11000 :
b11000 w
b11000 ~
b11000 ?"
b100111110111110001110001100011 9
b100111110111110001110001100011 u
b100111110111110001110001100011 {
b100111110111110001110001100011 @"
b10 S
b10 R
b10 c
b11 V
b111111111111111111111111111111 h
1\
1[
0]
b10 P
b10 Q
b11 F
b11 j
b11 Z"
b10 E
b10 k
b10 ["
b11100 /
b11100 J"
b11100 O"
b11100 R"
b11100 (
b11100 -
b11100 Q"
b11100 _"
b11100 +
b11100 U"
b11100 W"
b100111110111110001110001100011 0
b100111110111110001110001100011 9"
b100111110111110001110001100011 G"
b100111110111110001110001100011 M"
b11000 1
b11000 :"
b11000 I"
b11000 P"
b1000000000000110010011 @
b1000000000000110010011 a
b1000000000000110010011 t
b1000000000000110010011 |
b10100 A
b10100 b
b10100 v
b10100 !"
b10 ^
b10 =
b10 X
b10 n
b10 '"
b11 <
b11 U
b11 l
b11 *"
1$
#1700
0$
#1800
0L
0J
b1010010000 K
b1010010000 N
b1010010000 V"
14
b1 5
b1 m
b1 )"
b1 D"
b1 6
b1 o
b1 &"
b1 C"
b0 2
b0 F"
b0 Y"
b0 3
b0 E"
b0 X"
b11111111111111111111111111111111 h
0\
0[
1]
b0 P
b0 Q
0G
b1010010000 H
b1010010000 M
b1010010000 i
0D
b0 F
b0 j
b0 Z"
b0 E
b0 k
b0 ["
b10011 d
b11101 S
b11101 R
b1001111101 c
b11110 T
b1 e
b11000 V
b1100011 W
b0 <"
b1 4"
b1 2"
b1 ;"
b0 6"
b0 ="
b1 7"
b10011 8"
b0 8
b0 s
b0 0"
b0 A"
b0 C
b0 y
b0 -"
b0 >"
b11100 :
b11100 w
b11100 ~
b11100 ?"
b100000000000010010011 9
b100000000000010010011 u
b100000000000010010011 {
b100000000000010010011 @"
b100001000111100010011 .
b100001000111100010011 H"
b100001000111100010011 L"
b100001000111100010011 S"
b100001000111100010011 '
b100001000111100010011 ,
b100001000111100010011 T"
b100001000111100010011 `"
b1001111000 ?
b1001111000 `
b1001111000 r
b1001111000 1"
b1010010000 g
b11000 B
b11000 f
b11000 x
b11000 ."
0;
b0 <
b0 U
b0 l
b0 *"
b0 ^
b0 =
b0 X
b0 n
b0 '"
b11000 A
b11000 b
b11000 v
b11000 !"
b100111110111110001110001100011 @
b100111110111110001110001100011 a
b100111110111110001110001100011 t
b100111110111110001110001100011 |
b11100 1
b11100 :"
b11100 I"
b11100 P"
b100000000000010010011 0
b100000000000010010011 9"
b100000000000010010011 G"
b100000000000010010011 M"
b100000 /
b100000 J"
b100000 O"
b100000 R"
b100000 (
b100000 -
b100000 Q"
b100000 _"
b100000 +
b100000 U"
b100000 W"
1$
#1900
0$
#2000
b1 7
b1 q
b1 #"
b1 B"
b1 *
b1 5"
b1 \"
b11110 5
b11110 m
b11110 )"
b11110 D"
b1 3
b1 E"
b1 X"
1D
b1 F
b1 j
b1 Z"
b1 E
b1 k
b1 ["
b0 K
b0 N
b0 V"
b1000000000111010010011 .
b1000000000111010010011 H"
b1000000000111010010011 L"
b1000000000111010010011 S"
b1000000000111010010011 '
b1000000000111010010011 ,
b1000000000111010010011 T"
b1000000000111010010011 `"
b1 6"
b11110 7"
b100000 :
b100000 w
b100000 ~
b100000 ?"
b100001000111100010011 9
b100001000111100010011 u
b100001000111100010011 {
b100001000111100010011 @"
b0 d
b1 S
b1 R
b1 c
b0 T
b0 e
b1 V
b10011 W
b1111111111111111111111111111111 h
1\
1[
0]
b1 P
b1 Q
b0 H
b0 M
b0 i
b100100 /
b100100 J"
b100100 O"
b100100 R"
b100100 (
b100100 -
b100100 Q"
b100100 _"
b100100 +
b100100 U"
b100100 W"
b100001000111100010011 0
b100001000111100010011 9"
b100001000111100010011 G"
b100001000111100010011 M"
b100000 1
b100000 :"
b100000 I"
b100000 P"
b100000000000010010011 @
b100000000000010010011 a
b100000000000010010011 t
b100000000000010010011 |
b11100 A
b11100 b
b11100 v
b11100 !"
b1 ^
b1 =
b1 X
b1 n
b1 '"
b1 <
b1 U
b1 l
b1 *"
1;
b0 B
b0 f
b0 x
b0 ."
b0 g
b0 ?
b0 `
b0 r
b0 1"
1$
#2100
0$
#2200
b0 7
b0 q
b0 #"
b0 B"
b0 *
b0 5"
b0 \"
b11101 5
b11101 m
b11101 )"
b11101 D"
b10 6
b10 o
b10 &"
b10 C"
b0 3
b0 E"
b0 X"
0\
0[
1]
b0 Q
b1 O
b11110 F
b11110 j
b11110 Z"
b10 E
b10 k
b10 ["
b1 T
b11110 V
b10 4"
b10 2"
b10 ;"
b0 6"
b11101 7"
b100100 :
b100100 w
b100100 ~
b100100 ?"
b1000000000111010010011 9
b1000000000111010010011 u
b1000000000111010010011 {
b1000000000111010010011 @"
b1100000000000110010011 .
b1100000000000110010011 H"
b1100000000000110010011 L"
b1100000000000110010011 S"
b1100000000000110010011 '
b1100000000000110010011 ,
b1100000000000110010011 T"
b1100000000000110010011 `"
b11110 <
b11110 U
b11110 l
b11110 *"
b10 Z
b10 ^
b1 >
b1 _
b1 p
b1 $"
b100000 A
b100000 b
b100000 v
b100000 !"
b100001000111100010011 @
b100001000111100010011 a
b100001000111100010011 t
b100001000111100010011 |
b100100 1
b100100 :"
b100100 I"
b100100 P"
b1000000000111010010011 0
b1000000000111010010011 9"
b1000000000111010010011 G"
b1000000000111010010011 M"
b101000 /
b101000 J"
b101000 O"
b101000 R"
b101000 (
b101000 -
b101000 Q"
b101000 _"
b101000 +
b101000 U"
b101000 W"
1$
#2300
0$
#2400
b11 5
b11 m
b11 )"
b11 D"
b11 6
b11 o
b11 &"
b11 C"
b100111110111110001001001100011 .
b100111110111110001001001100011 H"
b100111110111110001001001100011 L"
b100111110111110001001001100011 S"
b100111110111110001001001100011 '
b100111110111110001001001100011 ,
b100111110111110001001001100011 T"
b100111110111110001001001100011 `"
b11 4"
b11 2"
b11 ;"
b11 7"
b101000 :
b101000 w
b101000 ~
b101000 ?"
b1100000000000110010011 9
b1100000000000110010011 u
b1100000000000110010011 {
b1100000000000110010011 @"
b10 S
b10 R
b10 c
b0 T
b11101 V
b111111111111111111111111111111 h
1\
1[
0]
b10 P
b10 Q
b0 O
b11101 F
b11101 j
b11101 Z"
b101100 /
b101100 J"
b101100 O"
b101100 R"
b101100 (
b101100 -
b101100 Q"
b101100 _"
b101100 +
b101100 U"
b101100 W"
b1100000000000110010011 0
b1100000000000110010011 9"
b1100000000000110010011 G"
b1100000000000110010011 M"
b101000 1
b101000 :"
b101000 I"
b101000 P"
b1000000000111010010011 @
b1000000000111010010011 a
b1000000000111010010011 t
b1000000000111010010011 |
b100100 A
b100100 b
b100100 v
b100100 !"
b0 >
b0 _
b0 p
b0 $"
b0 Z
b10 ^
b10 =
b10 X
b10 n
b10 '"
b11101 <
b11101 U
b11101 l
b11101 *"
1$
#2500
0$
#2600
b10 7
b10 q
b10 #"
b10 B"
b10 )
b10 3"
b10 ]"
b10 *
b10 5"
b10 \"
b1001100100 8
b1001100100 s
b1001100100 0"
b1001100100 A"
b101100 C
b101100 y
b101100 -"
b101100 >"
04
b0 5
b0 m
b0 )"
b0 D"
b10 6
b10 o
b10 &"
b10 C"
b11101 2
b11101 F"
b11101 Y"
b11110 3
b11110 E"
b11110 X"
b11111111111111111111111111111 h
b11 P
b11 Q
b11 F
b11 j
b11 Z"
b11 E
b11 k
b11 ["
b11 S
b11 R
b11 c
b11 V
b10011 <"
b11101 4"
b11101 2"
b1001111101 ;"
b11110 6"
b1 ="
b100 7"
b1100011 8"
b101100 :
b101100 w
b101100 ~
b101100 ?"
b100111110111110001001001100011 9
b100111110111110001001001100011 u
b100111110111110001001001100011 {
b100111110111110001001001100011 @"
b1100000000000010010011 .
b1100000000000010010011 H"
b1100000000000010010011 L"
b1100000000000010010011 S"
b1100000000000010010011 '
b1100000000000010010011 ,
b1100000000000010010011 T"
b1100000000000010010011 `"
b11 <
b11 U
b11 l
b11 *"
b11 ^
b11 =
b11 X
b11 n
b11 '"
b101000 A
b101000 b
b101000 v
b101000 !"
b1100000000000110010011 @
b1100000000000110010011 a
b1100000000000110010011 t
b1100000000000110010011 |
b101100 1
b101100 :"
b101100 I"
b101100 P"
b100111110111110001001001100011 0
b100111110111110001001001100011 9"
b100111110111110001001001100011 G"
b100111110111110001001001100011 M"
b110000 /
b110000 J"
b110000 O"
b110000 R"
b110000 (
b110000 -
b110000 Q"
b110000 _"
b110000 +
b110000 U"
b110000 W"
1$
#2700
0$
#2800
b0 7
b0 q
b0 #"
b0 B"
b1010010000 K
b1010010000 N
b1010010000 V"
b0 )
b0 3"
b0 ]"
b0 *
b0 5"
b0 \"
14
b1 5
b1 m
b1 )"
b1 D"
b11 6
b11 o
b11 &"
b11 C"
b0 2
b0 F"
b0 Y"
b0 3
b0 E"
b0 X"
b1010010000 H
b1010010000 M
b1010010000 i
0D
b11100001000111100010011 .
b11100001000111100010011 H"
b11100001000111100010011 L"
b11100001000111100010011 S"
b11100001000111100010011 '
b11100001000111100010011 ,
b11100001000111100010011 T"
b11100001000111100010011 `"
b0 <"
b11 4"
b11 2"
b11 ;"
b0 6"
b0 ="
b1 7"
b10011 8"
b0 8
b0 s
b0 0"
b0 A"
b0 C
b0 y
b0 -"
b0 >"
b110000 :
b110000 w
b110000 ~
b110000 ?"
b1100000000000010010011 9
b1100000000000010010011 u
b1100000000000010010011 {
b1100000000000010010011 @"
1!
b10011 d
b11101 S
b11101 R
b1001111101 c
b11110 T
b1 e
b100 V
b1100011 W
0\
0[
1]
b111111111111111111111111111111 h
b10 P
b0 Q
b10 O
b0 F
b0 j
b0 Z"
b0 E
b0 k
b0 ["
b110100 /
b110100 J"
b110100 O"
b110100 R"
b110100 (
b110100 -
b110100 Q"
b110100 _"
b110100 +
b110100 U"
b110100 W"
b1100000000000010010011 0
b1100000000000010010011 9"
b1100000000000010010011 G"
b1100000000000010010011 M"
b110000 1
b110000 :"
b110000 I"
b110000 P"
b100111110111110001001001100011 @
b100111110111110001001001100011 a
b100111110111110001001001100011 t
b100111110111110001001001100011 |
b101100 A
b101100 b
b101100 v
b101100 !"
b1000 Z
b10 >
b10 _
b10 p
b10 $"
b100 ^
b10 =
b10 X
b10 n
b10 '"
b0 <
b0 U
b0 l
b0 *"
0;
b101100 B
b101100 f
b101100 x
b101100 ."
b1010010000 g
b1001100100 ?
b1001100100 `
b1001100100 r
b1001100100 1"
1$
#2900
0$
#3000
b11 7
b11 q
b11 #"
b11 B"
b11 *
b11 5"
b11 \"
b0 K
b0 N
b0 V"
b11110 5
b11110 m
b11110 )"
b11110 D"
b111 6
b111 o
b111 &"
b111 C"
b1 3
b1 E"
b1 X"
b11111111111111111111111111111 h
1\
1[
0]
b11 P
b11 Q
b0 O
1D
b1 F
b1 j
b1 Z"
b11 E
b11 k
b11 ["
b0 H
b0 M
b0 i
b0 d
b11 S
b11 R
b11 c
b0 T
b0 e
b1 V
b10011 W
b111 4"
b111 2"
b111 ;"
b1 6"
b11110 7"
b110100 :
b110100 w
b110100 ~
b110100 ?"
b11100001000111100010011 9
b11100001000111100010011 u
b11100001000111100010011 {
b11100001000111100010011 @"
b101000000000111010010011 .
b101000000000111010010011 H"
b101000000000111010010011 L"
b101000000000111010010011 S"
b101000000000111010010011 '
b101000000000111010010011 ,
b101000000000111010010011 T"
b101000000000111010010011 `"
b0 ?
b0 `
b0 r
b0 1"
b0 g
b0 B
b0 f
b0 x
b0 ."
1;
b1 <
b1 U
b1 l
b1 *"
b11 =
b11 X
b11 n
b11 '"
b0 Z
b11 ^
b0 >
b0 _
b0 p
b0 $"
b110000 A
b110000 b
b110000 v
b110000 !"
b1100000000000010010011 @
b1100000000000010010011 a
b1100000000000010010011 t
b1100000000000010010011 |
b110100 1
b110100 :"
b110100 I"
b110100 P"
b11100001000111100010011 0
b11100001000111100010011 9"
b11100001000111100010011 G"
b11100001000111100010011 M"
b111000 /
b111000 J"
b111000 O"
b111000 R"
b111000 (
b111000 -
b111000 Q"
b111000 _"
b111000 +
b111000 U"
b111000 W"
1$
#3100
0$
